004-005 @READ_PROGRAM_MEMORY8.P1
004-005 @WRITE_PROGRAM_MEMORY8.P2
008     PSP_DATA
015     CCP_1
015     CCP_1_LOW
016     CCP_1_HIGH
01B     CCP_2
01B     CCP_2_LOW
01C     CCP_2_HIGH
020     dato
021     @PRINTF_U_9600_62_63.P1
021     main.@SCRATCH1
021     @cinit1.@SCRATCH1
022     @delay_ms1.P1
022     @PRINTF_U_9600_62_63.P2
022     @cinit1.@SCRATCH2
023     @DIV88.P1
023     @cinit1.@SCRATCH3
024     @DIV88.P1
024     @cinit1.@SCRATCH4
025     @DIV88.@SCRATCH1
077     @SCRATCH
078     @SCRATCH
078     _RETURN_
079     @SCRATCH
07A     @SCRATCH
09C.6   C1OUT
09C.7   C2OUT
10D-10E @WRITE_PROGRAM_MEMORY8.P1
10D-10E @READ_PROGRAM_MEMORY8.P2

ROM Allocation:
000004  @delay_ms1
00001B  @DIV88
000030  @PRINTF_U_9600_62_63
00006A  @cinit1
00006A  main
00007D  @cinit2

Project Directory:
    C:\OHM\instrumentacion-electronica\termic-sensor\pic-code\

Project Files:
    programa.c                                              [07-may.-19 14:23  CRC=FEA9EA5B]
    ..\..\..\..\Program Files (x86)\PICC\Devices\16f877a.h  [12-nov.-13 15:35  CRC=81334808]

Source signature=01107A6B

Units:
    programa (main)

Compiler Settings:
    Processor:      PIC16F877A
    Pointer Size:   16
    ADC Range:      0-255
    Opt Level:      9
    Short,Int,Long: UNSIGNED: 1,8,16
    Float,Double:   32,32

Output Files:
    XREF file:   programa.xsym
    Errors:      programa.err
    Ext Symbols: programa.esym
    INHX8:       programa.hex
    Symbols:     programa.sym
    List:        programa.lst
    Debug/COFF:  programa.cof
    Project:     programa.ccspjt
    Call Tree:   programa.tre
    Statistics:  programa.STA
