004-005 @WRITE_PROGRAM_MEMORY8.P1
004-005 @READ_PROGRAM_MEMORY8.P2
008     PSP_DATA
015     CCP_1
015     CCP_1_LOW
016     CCP_1_HIGH
01B     CCP_2
01B     CCP_2_LOW
01C     CCP_2_HIGH
020-021 strtok.save
022-025 read_value
026-029 h1
02A-02D h2
02E-031 rtd
032     MAIN.counter
033-034 @ITOF.P1
033-036 @ADDFF.P2
033     MAIN.@SCRATCH1
034     @delay_ms1.P1
034     MAIN.@SCRATCH2
035-036 @MUL1616.P1
035     MAIN.@SCRATCH3
036     MAIN.@SCRATCH4
037-03A @PRINTF_L32D_9600_62_63FPFPF.P1
037-03A @ADDFF.P2
037-038 @MUL1616.P3
039     @MUL1616.@SCRATCH1
03B     @PRINTF_L32D_9600_62_63FPFPF.P1
03B     @ADDFF.@SCRATCH1
03C     @ADDFF.@SCRATCH2
03C     @PRINTF_L32D_9600_62_63FPFPF.@SCRATCH1
03D     @ADDFF.@SCRATCH3
03D     @PRINTF_L32D_9600_62_63FPFPF.@SCRATCH2
03E     @ADDFF.@SCRATCH4
03E     @PRINTF_L32D_9600_62_63FPFPF.@SCRATCH3
03F     @ADDFF.@SCRATCH5
03F     @PRINTF_L32D_9600_62_63FPFPF.@SCRATCH4
040     @ADDFF.@SCRATCH6
040     @PRINTF_L32D_9600_62_63FPFPF.@SCRATCH5
041     @ADDFF.@SCRATCH7
041     @PRINTF_L32D_9600_62_63FPFPF.@SCRATCH6
042     @ADDFF.@SCRATCH8
042     @PRINTF_L32D_9600_62_63FPFPF.@SCRATCH7
043     @PRINTF_L32D_9600_62_63FPFPF.@SCRATCH8
044-047 @MULFF.P1
044-047 @FTOSD.P2
044-047 @DIV3232.P3
048-04B @MULFF.P1
048-04B @DIV3232.P2
048     @FTOSD.@SCRATCH1
04C     @MULFF.@SCRATCH1
04C     @DIV3232.@SCRATCH1
04D     @MULFF.@SCRATCH2
04D     @DIV3232.@SCRATCH2
04E     @MULFF.@SCRATCH3
04E     @DIV3232.@SCRATCH3
04F     @MULFF.@SCRATCH4
04F     @DIV3232.@SCRATCH4
050     @MULFF.@SCRATCH5
050     @DIV3232.@SCRATCH5
077     @SCRATCH
078     @SCRATCH
078     _RETURN_
079     @SCRATCH
07A     @SCRATCH
09C.6   C1OUT
09C.7   C2OUT
10D-10E @READ_PROGRAM_MEMORY8.P1
10D-10E @WRITE_PROGRAM_MEMORY8.P2

ROM Allocation:
000004  @MUL1616
000019  @ITOF
000038  @delay_ms1
00004D  @ADDFF
00018E  @DIV3232
0001DD  @PRINTF_L32D_9600_62_63FPFPF
0001F1  @MULFF
000277  @FTOSD
000334  @cinit1
000334  MAIN
000356  @cinit2

Project Directory:
    C:\OHM\instrumentacion-electronica\termic-sensor\pic-code\

Project Files:
    temperature.c                                           [28-may.-19 14:00  CRC=FBDA232A]
    ..\..\..\..\Program Files (x86)\PICC\Devices\16f877A.h  [12-nov.-13 15:35  CRC=81334808]
    ..\..\..\..\Program Files (x86)\PICC\Drivers\stdio.h    [31-jul.-07 14:24  CRC=4E4534F4]
    ..\..\..\..\Program Files (x86)\PICC\Drivers\string.h   [14-jul.-11 11:13  CRC=23EDEC8F]
    ..\..\..\..\Program Files (x86)\PICC\Drivers\stddef.h   [16-jul.-10 10:27  CRC=897CEC6C]
    ..\..\..\..\Program Files (x86)\PICC\Drivers\ctype.h    [03-ene.-08 14:55  CRC=2D1F019F]

Source signature=D2FB7C5F

Units:
    temperature (main)

Compiler Settings:
    Processor:      PIC16F877A
    Pointer Size:   16
    ADC Range:      0-1023
    Opt Level:      9
    Short,Int,Long: UNSIGNED: 1,8,16
    Float,Double:   32,32

Output Files:
    XREF file:   temperature.xsym
    Errors:      temperature.err
    Ext Symbols: temperature.esym
    INHX8:       temperature.hex
    Symbols:     temperature.sym
    List:        temperature.lst
    Debug/COFF:  temperature.cof
    Project:     temperature.ccspjt
    Call Tree:   temperature.tre
    Statistics:  temperature.STA
