CCS PCM C Compiler, Version 5.015, 5967               28-may.-19 14:06

               Filename:   C:\OHM\instrumentacion-electronica\termic-sensor\pic-code\temperature.lst

               ROM used:   1082 words (13%)
                           Largest free fragment is 2048
               RAM used:   28 (8%) at main() level
                           54 (15%) worst case
               Stack used: 2 locations
               Stack size: 8

*
0000:  MOVLW  03
0001:  MOVWF  0A
0002:  GOTO   334
0003:  NOP
.................... #include <16f877A.h> 
.................... //////////// Standard Header file for the PIC16F877A device //////////////// 
.................... /////////////////////////////////////////////////////////////////////////// 
.................... ////        (C) Copyright 1996, 2013 Custom Computer Services          //// 
.................... //// This source code may only be used by licensed users of the CCS C  //// 
.................... //// compiler.  This source code may only be distributed to other      //// 
.................... //// licensed users of the CCS C compiler.  No other use, reproduction //// 
.................... //// or distribution is permitted without written permission.          //// 
.................... //// Derivative programs created using this software in object code    //// 
.................... //// form are not restricted in any way.                               //// 
.................... /////////////////////////////////////////////////////////////////////////// 
.................... #device PIC16F877A 
0004:  MOVLW  10
0005:  MOVWF  39
0006:  CLRF   77
0007:  CLRF   7A
0008:  RRF    36,F
0009:  RRF    35,F
000A:  BTFSS  03.0
000B:  GOTO   012
000C:  MOVF   37,W
000D:  ADDWF  77,F
000E:  BTFSC  03.0
000F:  INCF   7A,F
0010:  MOVF   38,W
0011:  ADDWF  7A,F
0012:  RRF    7A,F
0013:  RRF    77,F
0014:  RRF    79,F
0015:  RRF    78,F
0016:  DECFSZ 39,F
0017:  GOTO   008
0018:  RETURN
0019:  MOVLW  8E
001A:  MOVWF  77
001B:  MOVF   34,W
001C:  MOVWF  78
001D:  MOVF   33,W
001E:  MOVWF  79
001F:  CLRF   7A
0020:  MOVF   78,F
0021:  BTFSS  03.2
0022:  GOTO   02D
0023:  MOVF   79,W
0024:  MOVWF  78
0025:  CLRF   79
0026:  MOVLW  08
0027:  SUBWF  77,F
0028:  MOVF   78,F
0029:  BTFSS  03.2
002A:  GOTO   02D
002B:  CLRF   77
002C:  GOTO   035
002D:  BCF    03.0
002E:  BTFSC  78.7
002F:  GOTO   034
0030:  RLF    79,F
0031:  RLF    78,F
0032:  DECF   77,F
0033:  GOTO   02D
0034:  BCF    78.7
0035:  BCF    0A.3
0036:  BCF    0A.4
0037:  GOTO   39C (RETURN)
*
004D:  MOVLW  80
004E:  BTFSC  03.1
004F:  XORWF  38,F
0050:  CLRF   3D
0051:  CLRF   3E
0052:  MOVF   34,W
0053:  MOVWF  3C
0054:  MOVF   38,W
0055:  XORWF  3C,F
0056:  MOVF   33,W
0057:  BTFSC  03.2
0058:  GOTO   13D
0059:  MOVWF  3B
005A:  MOVWF  77
005B:  MOVF   37,W
005C:  BTFSC  03.2
005D:  GOTO   146
005E:  SUBWF  3B,F
005F:  BTFSC  03.2
0060:  GOTO   0E2
0061:  BTFSS  03.0
0062:  GOTO   0A0
0063:  MOVF   38,W
0064:  MOVWF  41
0065:  BSF    41.7
0066:  MOVF   39,W
0067:  MOVWF  40
0068:  MOVF   3A,W
0069:  MOVWF  3F
006A:  CLRF   3E
006B:  BCF    03.0
006C:  RRF    41,F
006D:  RRF    40,F
006E:  RRF    3F,F
006F:  RRF    3E,F
0070:  DECFSZ 3B,F
0071:  GOTO   06A
0072:  BTFSS  3C.7
0073:  GOTO   077
0074:  BSF    3D.0
0075:  GOTO   15A
0076:  BCF    3D.0
0077:  BCF    3B.0
0078:  BSF    3D.4
0079:  MOVLW  36
007A:  MOVWF  04
007B:  BCF    03.7
007C:  GOTO   16F
007D:  BCF    3D.4
007E:  BTFSC  3C.7
007F:  GOTO   08A
0080:  BTFSS  3B.0
0081:  GOTO   095
0082:  RRF    41,F
0083:  RRF    40,F
0084:  RRF    3F,F
0085:  RRF    3E,F
0086:  INCF   77,F
0087:  BTFSC  03.2
0088:  GOTO   155
0089:  GOTO   095
008A:  BTFSC  41.7
008B:  GOTO   098
008C:  BCF    03.0
008D:  RLF    3E,F
008E:  RLF    3F,F
008F:  RLF    40,F
0090:  RLF    41,F
0091:  DECF   77,F
0092:  BTFSC  03.2
0093:  GOTO   155
0094:  GOTO   08A
0095:  BSF    3D.6
0096:  GOTO   102
0097:  BCF    3D.6
0098:  MOVF   34,W
0099:  MOVWF  3C
009A:  BTFSS  3C.7
009B:  GOTO   09E
009C:  BSF    41.7
009D:  GOTO   14E
009E:  BCF    41.7
009F:  GOTO   14E
00A0:  MOVF   37,W
00A1:  MOVWF  3B
00A2:  MOVWF  77
00A3:  MOVF   33,W
00A4:  SUBWF  3B,F
00A5:  MOVF   34,W
00A6:  MOVWF  41
00A7:  BSF    41.7
00A8:  MOVF   35,W
00A9:  MOVWF  40
00AA:  MOVF   36,W
00AB:  MOVWF  3F
00AC:  CLRF   3E
00AD:  BCF    03.0
00AE:  RRF    41,F
00AF:  RRF    40,F
00B0:  RRF    3F,F
00B1:  RRF    3E,F
00B2:  DECFSZ 3B,F
00B3:  GOTO   0AC
00B4:  BTFSS  3C.7
00B5:  GOTO   0B9
00B6:  BSF    3D.1
00B7:  GOTO   15A
00B8:  BCF    3D.1
00B9:  BCF    3B.0
00BA:  BSF    3D.5
00BB:  MOVLW  3A
00BC:  MOVWF  04
00BD:  BCF    03.7
00BE:  GOTO   16F
00BF:  BCF    3D.5
00C0:  BTFSC  3C.7
00C1:  GOTO   0CC
00C2:  BTFSS  3B.0
00C3:  GOTO   0D7
00C4:  RRF    41,F
00C5:  RRF    40,F
00C6:  RRF    3F,F
00C7:  RRF    3E,F
00C8:  INCF   77,F
00C9:  BTFSC  03.2
00CA:  GOTO   155
00CB:  GOTO   0D7
00CC:  BTFSC  41.7
00CD:  GOTO   0DA
00CE:  BCF    03.0
00CF:  RLF    3E,F
00D0:  RLF    3F,F
00D1:  RLF    40,F
00D2:  RLF    41,F
00D3:  DECF   77,F
00D4:  BTFSC  03.2
00D5:  GOTO   155
00D6:  GOTO   0CC
00D7:  BSF    3D.7
00D8:  GOTO   102
00D9:  BCF    3D.7
00DA:  MOVF   38,W
00DB:  MOVWF  3C
00DC:  BTFSS  3C.7
00DD:  GOTO   0E0
00DE:  BSF    41.7
00DF:  GOTO   14E
00E0:  BCF    41.7
00E1:  GOTO   14E
00E2:  MOVF   38,W
00E3:  MOVWF  41
00E4:  BSF    41.7
00E5:  MOVF   39,W
00E6:  MOVWF  40
00E7:  MOVF   3A,W
00E8:  MOVWF  3F
00E9:  BTFSS  3C.7
00EA:  GOTO   0EF
00EB:  BCF    41.7
00EC:  BSF    3D.2
00ED:  GOTO   15A
00EE:  BCF    3D.2
00EF:  CLRF   3E
00F0:  BCF    3B.0
00F1:  MOVLW  36
00F2:  MOVWF  04
00F3:  BCF    03.7
00F4:  GOTO   16F
00F5:  BTFSC  3C.7
00F6:  GOTO   118
00F7:  MOVF   34,W
00F8:  MOVWF  3C
00F9:  BTFSS  3B.0
00FA:  GOTO   102
00FB:  RRF    41,F
00FC:  RRF    40,F
00FD:  RRF    3F,F
00FE:  RRF    3E,F
00FF:  INCF   77,F
0100:  BTFSC  03.2
0101:  GOTO   155
0102:  BTFSS  3E.7
0103:  GOTO   113
0104:  INCF   3F,F
0105:  BTFSS  03.2
0106:  GOTO   113
0107:  INCF   40,F
0108:  BTFSS  03.2
0109:  GOTO   113
010A:  INCF   41,F
010B:  BTFSS  03.2
010C:  GOTO   113
010D:  RRF    41,F
010E:  RRF    40,F
010F:  RRF    3F,F
0110:  INCF   77,F
0111:  BTFSC  03.2
0112:  GOTO   155
0113:  BTFSC  3D.6
0114:  GOTO   097
0115:  BTFSC  3D.7
0116:  GOTO   0D9
0117:  GOTO   137
0118:  MOVLW  80
0119:  XORWF  41,F
011A:  BTFSS  41.7
011B:  GOTO   120
011C:  GOTO   15A
011D:  MOVF   38,W
011E:  MOVWF  3C
011F:  GOTO   12D
0120:  MOVF   34,W
0121:  MOVWF  3C
0122:  MOVF   41,F
0123:  BTFSS  03.2
0124:  GOTO   12D
0125:  MOVF   40,F
0126:  BTFSS  03.2
0127:  GOTO   12D
0128:  MOVF   3F,F
0129:  BTFSS  03.2
012A:  GOTO   12D
012B:  CLRF   77
012C:  GOTO   14E
012D:  BTFSC  41.7
012E:  GOTO   137
012F:  BCF    03.0
0130:  RLF    3E,F
0131:  RLF    3F,F
0132:  RLF    40,F
0133:  RLF    41,F
0134:  DECFSZ 77,F
0135:  GOTO   12D
0136:  GOTO   155
0137:  BTFSS  3C.7
0138:  GOTO   13B
0139:  BSF    41.7
013A:  GOTO   14E
013B:  BCF    41.7
013C:  GOTO   14E
013D:  MOVF   37,W
013E:  MOVWF  77
013F:  MOVF   38,W
0140:  MOVWF  41
0141:  MOVF   39,W
0142:  MOVWF  40
0143:  MOVF   3A,W
0144:  MOVWF  3F
0145:  GOTO   14E
0146:  MOVF   33,W
0147:  MOVWF  77
0148:  MOVF   34,W
0149:  MOVWF  41
014A:  MOVF   35,W
014B:  MOVWF  40
014C:  MOVF   36,W
014D:  MOVWF  3F
014E:  MOVF   41,W
014F:  MOVWF  78
0150:  MOVF   40,W
0151:  MOVWF  79
0152:  MOVF   3F,W
0153:  MOVWF  7A
0154:  GOTO   18D
0155:  CLRF   77
0156:  CLRF   78
0157:  CLRF   79
0158:  CLRF   7A
0159:  GOTO   18D
015A:  CLRF   3E
015B:  COMF   3F,F
015C:  COMF   40,F
015D:  COMF   41,F
015E:  COMF   3E,F
015F:  INCF   3E,F
0160:  BTFSS  03.2
0161:  GOTO   168
0162:  INCF   3F,F
0163:  BTFSS  03.2
0164:  GOTO   168
0165:  INCF   40,F
0166:  BTFSC  03.2
0167:  INCF   41,F
0168:  BTFSC  3D.0
0169:  GOTO   076
016A:  BTFSC  3D.1
016B:  GOTO   0B8
016C:  BTFSC  3D.2
016D:  GOTO   0EE
016E:  GOTO   11D
016F:  MOVF   00,W
0170:  ADDWF  3F,F
0171:  BTFSS  03.0
0172:  GOTO   179
0173:  INCF   40,F
0174:  BTFSS  03.2
0175:  GOTO   179
0176:  INCF   41,F
0177:  BTFSC  03.2
0178:  BSF    3B.0
0179:  DECF   04,F
017A:  MOVF   00,W
017B:  ADDWF  40,F
017C:  BTFSS  03.0
017D:  GOTO   181
017E:  INCF   41,F
017F:  BTFSC  03.2
0180:  BSF    3B.0
0181:  DECF   04,F
0182:  MOVF   00,W
0183:  BTFSS  00.7
0184:  XORLW  80
0185:  ADDWF  41,F
0186:  BTFSC  03.0
0187:  BSF    3B.0
0188:  BTFSC  3D.4
0189:  GOTO   07D
018A:  BTFSC  3D.5
018B:  GOTO   0BF
018C:  GOTO   0F5
018D:  RETURN
018E:  BTFSC  03.1
018F:  GOTO   193
0190:  MOVLW  4C
0191:  MOVWF  04
0192:  BCF    03.7
0193:  CLRF   77
0194:  CLRF   78
0195:  CLRF   79
0196:  CLRF   7A
0197:  CLRF   4C
0198:  CLRF   4D
0199:  CLRF   4E
019A:  CLRF   4F
019B:  MOVF   4B,W
019C:  IORWF  4A,W
019D:  IORWF  49,W
019E:  IORWF  48,W
019F:  BTFSC  03.2
01A0:  GOTO   1D1
01A1:  MOVLW  20
01A2:  MOVWF  50
01A3:  BCF    03.0
01A4:  RLF    44,F
01A5:  RLF    45,F
01A6:  RLF    46,F
01A7:  RLF    47,F
01A8:  RLF    4C,F
01A9:  RLF    4D,F
01AA:  RLF    4E,F
01AB:  RLF    4F,F
01AC:  MOVF   4B,W
01AD:  SUBWF  4F,W
01AE:  BTFSS  03.2
01AF:  GOTO   1BA
01B0:  MOVF   4A,W
01B1:  SUBWF  4E,W
01B2:  BTFSS  03.2
01B3:  GOTO   1BA
01B4:  MOVF   49,W
01B5:  SUBWF  4D,W
01B6:  BTFSS  03.2
01B7:  GOTO   1BA
01B8:  MOVF   48,W
01B9:  SUBWF  4C,W
01BA:  BTFSS  03.0
01BB:  GOTO   1CB
01BC:  MOVF   48,W
01BD:  SUBWF  4C,F
01BE:  MOVF   49,W
01BF:  BTFSS  03.0
01C0:  INCFSZ 49,W
01C1:  SUBWF  4D,F
01C2:  MOVF   4A,W
01C3:  BTFSS  03.0
01C4:  INCFSZ 4A,W
01C5:  SUBWF  4E,F
01C6:  MOVF   4B,W
01C7:  BTFSS  03.0
01C8:  INCFSZ 4B,W
01C9:  SUBWF  4F,F
01CA:  BSF    03.0
01CB:  RLF    77,F
01CC:  RLF    78,F
01CD:  RLF    79,F
01CE:  RLF    7A,F
01CF:  DECFSZ 50,F
01D0:  GOTO   1A3
01D1:  MOVF   4C,W
01D2:  MOVWF  00
01D3:  INCF   04,F
01D4:  MOVF   4D,W
01D5:  MOVWF  00
01D6:  INCF   04,F
01D7:  MOVF   4E,W
01D8:  MOVWF  00
01D9:  INCF   04,F
01DA:  MOVF   4F,W
01DB:  MOVWF  00
01DC:  RETURN
01DD:  MOVF   04,W
01DE:  MOVWF  3C
01DF:  MOVF   3B,W
01E0:  MOVWF  3E
01E1:  BTFSC  03.2
01E2:  GOTO   26F
01E3:  MOVF   3A,W
01E4:  MOVWF  47
01E5:  MOVF   39,W
01E6:  MOVWF  46
01E7:  MOVF   38,W
01E8:  MOVWF  45
01E9:  MOVF   37,W
01EA:  MOVWF  44
01EB:  CLRF   4B
01EC:  CLRF   4A
01ED:  MOVLW  20
01EE:  MOVWF  49
01EF:  MOVLW  82
01F0:  MOVWF  48
01F1:  MOVF   44,W
01F2:  BTFSC  03.2
01F3:  GOTO   261
01F4:  MOVWF  4C
01F5:  MOVF   48,W
01F6:  BTFSC  03.2
01F7:  GOTO   261
01F8:  ADDWF  4C,F
01F9:  BTFSC  03.0
01FA:  GOTO   202
01FB:  MOVLW  7F
01FC:  SUBWF  4C,F
01FD:  BTFSS  03.0
01FE:  GOTO   261
01FF:  BTFSC  03.2
0200:  GOTO   261
0201:  GOTO   206
0202:  MOVLW  81
0203:  ADDWF  4C,F
0204:  BTFSC  03.0
0205:  GOTO   261
0206:  MOVF   4C,W
0207:  MOVWF  77
0208:  CLRF   78
0209:  CLRF   79
020A:  CLRF   7A
020B:  MOVF   45,W
020C:  MOVWF  50
020D:  BSF    50.7
020E:  MOVF   46,W
020F:  MOVWF  4F
0210:  MOVF   47,W
0211:  MOVWF  4E
0212:  MOVLW  18
0213:  MOVWF  4C
0214:  CLRF   4D
0215:  BTFSS  4E.0
0216:  GOTO   22F
0217:  MOVF   4B,W
0218:  ADDWF  7A,F
0219:  BTFSS  03.0
021A:  GOTO   221
021B:  INCF   79,F
021C:  BTFSS  03.2
021D:  GOTO   221
021E:  INCF   78,F
021F:  BTFSC  03.2
0220:  BSF    4D.7
0221:  MOVF   4A,W
0222:  ADDWF  79,F
0223:  BTFSS  03.0
0224:  GOTO   228
0225:  INCF   78,F
0226:  BTFSC  03.2
0227:  BSF    4D.7
0228:  MOVF   49,W
0229:  MOVWF  46
022A:  BSF    46.7
022B:  MOVF   46,W
022C:  ADDWF  78,F
022D:  BTFSC  03.0
022E:  BSF    4D.7
022F:  RLF    4D,F
0230:  RRF    78,F
0231:  RRF    79,F
0232:  RRF    7A,F
0233:  RRF    50,F
0234:  RRF    4F,F
0235:  RRF    4E,F
0236:  BCF    03.0
0237:  DECFSZ 4C,F
0238:  GOTO   214
0239:  MOVLW  01
023A:  ADDWF  77,F
023B:  BTFSC  03.0
023C:  GOTO   261
023D:  BTFSC  78.7
023E:  GOTO   246
023F:  RLF    50,F
0240:  RLF    7A,F
0241:  RLF    79,F
0242:  RLF    78,F
0243:  DECF   77,F
0244:  BTFSC  03.2
0245:  GOTO   261
0246:  BTFSS  50.7
0247:  GOTO   257
0248:  INCF   7A,F
0249:  BTFSS  03.2
024A:  GOTO   257
024B:  INCF   79,F
024C:  BTFSS  03.2
024D:  GOTO   257
024E:  INCF   78,F
024F:  BTFSS  03.2
0250:  GOTO   257
0251:  RRF    78,F
0252:  RRF    79,F
0253:  RRF    7A,F
0254:  INCF   77,F
0255:  BTFSC  03.2
0256:  GOTO   261
0257:  MOVF   45,W
0258:  MOVWF  4D
0259:  MOVF   49,W
025A:  XORWF  4D,F
025B:  BTFSS  4D.7
025C:  GOTO   25F
025D:  BSF    78.7
025E:  GOTO   265
025F:  BCF    78.7
0260:  GOTO   265
0261:  CLRF   77
0262:  CLRF   78
0263:  CLRF   79
0264:  CLRF   7A
0265:  MOVF   7A,W
0266:  MOVWF  3A
0267:  MOVF   79,W
0268:  MOVWF  39
0269:  MOVF   78,W
026A:  MOVWF  38
026B:  MOVF   77,W
026C:  MOVWF  37
026D:  DECFSZ 3E,F
026E:  GOTO   1E3
026F:  MOVF   3A,W
0270:  MOVWF  47
0271:  MOVF   39,W
0272:  MOVWF  46
0273:  MOVF   38,W
0274:  MOVWF  45
0275:  MOVF   37,W
0276:  MOVWF  44
0277:  MOVF   44,W
0278:  SUBLW  B6
0279:  MOVWF  44
027A:  CLRF   7A
027B:  MOVF   45,W
027C:  MOVWF  48
027D:  BSF    45.7
027E:  BCF    03.0
027F:  RRF    45,F
0280:  RRF    46,F
0281:  RRF    47,F
0282:  RRF    7A,F
0283:  RRF    79,F
0284:  RRF    78,F
0285:  RRF    77,F
0286:  DECFSZ 44,F
0287:  GOTO   27E
0288:  BTFSS  48.7
0289:  GOTO   295
028A:  COMF   77,F
028B:  COMF   78,F
028C:  COMF   79,F
028D:  COMF   7A,F
028E:  INCF   77,F
028F:  BTFSC  03.2
0290:  INCF   78,F
0291:  BTFSC  03.2
0292:  INCF   79,F
0293:  BTFSC  03.2
0294:  INCF   7A,F
0295:  MOVF   7A,W
0296:  MOVWF  3A
0297:  MOVF   79,W
0298:  MOVWF  39
0299:  MOVF   78,W
029A:  MOVWF  38
029B:  MOVF   77,W
029C:  MOVWF  37
029D:  BTFSS  3A.7
029E:  GOTO   2AC
029F:  DECF   3C,F
02A0:  BSF    3C.5
02A1:  COMF   37,F
02A2:  COMF   38,F
02A3:  COMF   39,F
02A4:  COMF   3A,F
02A5:  INCF   37,F
02A6:  BTFSC  03.2
02A7:  INCF   38,F
02A8:  BTFSC  03.2
02A9:  INCF   39,F
02AA:  BTFSC  03.2
02AB:  INCF   3A,F
02AC:  MOVLW  3B
02AD:  MOVWF  43
02AE:  MOVLW  9A
02AF:  MOVWF  42
02B0:  MOVLW  CA
02B1:  MOVWF  41
02B2:  CLRF   40
02B3:  MOVLW  0A
02B4:  MOVWF  3E
02B5:  MOVF   3B,W
02B6:  BTFSC  03.2
02B7:  INCF   3C,F
02B8:  BSF    03.1
02B9:  MOVLW  37
02BA:  MOVWF  04
02BB:  BCF    03.7
02BC:  MOVF   3A,W
02BD:  MOVWF  47
02BE:  MOVF   39,W
02BF:  MOVWF  46
02C0:  MOVF   38,W
02C1:  MOVWF  45
02C2:  MOVF   37,W
02C3:  MOVWF  44
02C4:  MOVF   43,W
02C5:  MOVWF  4B
02C6:  MOVF   42,W
02C7:  MOVWF  4A
02C8:  MOVF   41,W
02C9:  MOVWF  49
02CA:  MOVF   40,W
02CB:  MOVWF  48
02CC:  CALL   18E
02CD:  MOVF   78,W
02CE:  MOVF   77,F
02CF:  BTFSS  03.2
02D0:  GOTO   2E4
02D1:  INCF   3B,W
02D2:  SUBWF  3E,W
02D3:  BTFSC  03.2
02D4:  GOTO   2E4
02D5:  MOVF   3C,W
02D6:  BTFSC  03.2
02D7:  GOTO   2E6
02D8:  ANDLW  0F
02D9:  SUBWF  3E,W
02DA:  BTFSC  03.2
02DB:  GOTO   2DE
02DC:  BTFSC  03.0
02DD:  GOTO   31A
02DE:  BTFSC  3C.7
02DF:  GOTO   31A
02E0:  BTFSC  3C.6
02E1:  GOTO   2E6
02E2:  MOVLW  20
02E3:  GOTO   315
02E4:  MOVLW  20
02E5:  ANDWF  3C,F
02E6:  BTFSS  3C.5
02E7:  GOTO   2F5
02E8:  BCF    3C.5
02E9:  MOVF   3B,W
02EA:  BTFSS  03.2
02EB:  DECF   3C,F
02EC:  MOVF   77,W
02ED:  MOVWF  3C
02EE:  MOVLW  2D
02EF:  BTFSS  0C.4
02F0:  GOTO   2EF
02F1:  MOVWF  19
02F2:  MOVF   3C,W
02F3:  MOVWF  77
02F4:  CLRF   3C
02F5:  MOVF   3B,W
02F6:  SUBWF  3E,W
02F7:  BTFSS  03.2
02F8:  GOTO   304
02F9:  MOVF   77,W
02FA:  MOVWF  3C
02FB:  MOVLW  2E
02FC:  BTFSS  0C.4
02FD:  GOTO   2FC
02FE:  MOVWF  19
02FF:  MOVF   3C,W
0300:  MOVWF  77
0301:  MOVLW  20
0302:  ANDWF  3C,F
0303:  MOVLW  00
0304:  MOVLW  30
0305:  BTFSS  3C.5
0306:  GOTO   315
0307:  BCF    3C.5
0308:  MOVF   3B,W
0309:  BTFSS  03.2
030A:  DECF   3C,F
030B:  MOVF   77,W
030C:  MOVWF  3C
030D:  MOVLW  2D
030E:  BTFSS  0C.4
030F:  GOTO   30E
0310:  MOVWF  19
0311:  MOVF   3C,W
0312:  MOVWF  77
0313:  CLRF   3C
0314:  MOVLW  30
0315:  ADDWF  77,F
0316:  MOVF   77,W
0317:  BTFSS  0C.4
0318:  GOTO   317
0319:  MOVWF  19
031A:  BCF    03.1
031B:  MOVF   43,W
031C:  MOVWF  47
031D:  MOVF   42,W
031E:  MOVWF  46
031F:  MOVF   41,W
0320:  MOVWF  45
0321:  MOVF   40,W
0322:  MOVWF  44
0323:  CLRF   4B
0324:  CLRF   4A
0325:  CLRF   49
0326:  MOVLW  0A
0327:  MOVWF  48
0328:  CALL   18E
0329:  MOVF   7A,W
032A:  MOVWF  43
032B:  MOVF   79,W
032C:  MOVWF  42
032D:  MOVF   78,W
032E:  MOVWF  41
032F:  MOVF   77,W
0330:  MOVWF  40
0331:  DECFSZ 3E,F
0332:  GOTO   2B8
0333:  RETURN
....................  
.................... #list 
....................  
.................... #device adc=10 //ADC de 10 bits 
.................... #include <stdio.h> 
.................... /////////////////////////////////////////////////////////////////////////// 
.................... ////        (C) Copyright 1996,2003 Custom Computer Services           //// 
.................... //// This source code may only be used by licensed users of the CCS C  //// 
.................... //// compiler.  This source code may only be distributed to other      //// 
.................... //// licensed users of the CCS C compiler.  No other use, reproduction //// 
.................... //// or distribution is permitted without written permission.          //// 
.................... //// Derivative programs created using this software in object code    //// 
.................... //// form are not restricted in any way.                               //// 
.................... /////////////////////////////////////////////////////////////////////////// 
....................  
.................... #ifndef _STDIO 
.................... #define _STDIO 
.................... #include <string.h> 
.................... //////////////////////////////////////////////////////////////////////////// 
.................... ////        (C) Copyright 1996,2008 Custom Computer Services            //// 
.................... //// This source code may only be used by licensed users of the CCS C   //// 
.................... //// compiler.  This source code may only be distributed to other       //// 
.................... //// licensed users of the CCS C compiler.  No other use, reproduction  //// 
.................... //// or distribution is permitted without written permission.           //// 
.................... //// Derivative programs created using this software in object code     //// 
.................... //// form are not restricted in any way.                                //// 
.................... //////////////////////////////////////////////////////////////////////////// 
....................  
.................... #ifndef _STRING 
.................... #define _STRING 
.................... #include <stddef.h> 
.................... /////////////////////////////////////////////////////////////////////////// 
.................... ////        (C) Copyright 1996,2003 Custom Computer Services           //// 
.................... //// This source code may only be used by licensed users of the CCS C  //// 
.................... //// compiler.  This source code may only be distributed to other      //// 
.................... //// licensed users of the CCS C compiler.  No other use, reproduction //// 
.................... //// or distribution is permitted without written permission.          //// 
.................... //// Derivative programs created using this software in object code    //// 
.................... //// form are not restricted in any way.                               //// 
.................... /////////////////////////////////////////////////////////////////////////// 
....................  
.................... #ifndef _STDDEF 
....................  
.................... #define _STDDEF 
....................  
.................... #if sizeof(unsigned int8 *)==1 
.................... #define ptrdiff_t unsigned int8 
.................... #else 
.................... #define ptrdiff_t unsigned int16 
.................... #endif 
....................  
.................... #if defined(__PCB__) 
.................... #define size_t unsigned int8 
.................... #else 
.................... #define size_t unsigned int16 
.................... #endif 
.................... #define wchar_t char 
.................... #define NULL 0 
....................  
.................... #define offsetof(s,f) (offsetofbit(s,f)/8) 
....................  
.................... #endif 
....................  
.................... #include <ctype.h> 
.................... //////////////////////////////////////////////////////////////////////////// 
.................... ////        (C) Copyright 1996,2003 Custom Computer Services            //// 
.................... //// This source code may only be used by licensed users of the CCS C   //// 
.................... //// compiler.  This source code may only be distributed to other       //// 
.................... //// licensed users of the CCS C compiler.  No other use, reproduction  //// 
.................... //// or distribution is permitted without written permission.           //// 
.................... //// Derivative programs created using this software in object code     //// 
.................... //// form are not restricted in any way.                                //// 
.................... //////////////////////////////////////////////////////////////////////////// 
....................  
.................... #ifndef _CTYPE 
.................... #define _CTYPE 
....................  
.................... #define islower(x)  isamong(x,"abcdefghijklmnopqrstuvwxyz") 
.................... #define isupper(x)  isamong(x,"ABCDEFGHIJKLMNOPQRSTUVWXYZ") 
.................... #define isalnum(x)  isamong(x,"0123456789ABCDEFGHIJKLMNOPQRSTUVWXYZabcdefghijklmnopqrstuvwxyz") 
.................... #define isalpha(x)  isamong(x,"ABCDEFGHIJKLMNOPQRSTUVWXYZabcdefghijklmnopqrstuvwxyz") 
.................... #define isdigit(x)  isamong(x,"0123456789") 
.................... #define isspace(x)  ((x)==' ') 
.................... #define isxdigit(x) isamong(x,"0123456789ABCDEFabcdef") 
.................... #define iscntrl(x)  ((x)<' ') 
.................... #define isprint(x)  ((x)>=' ') 
.................... #define isgraph(x)  ((x)>' ') 
.................... #define ispunct(x)  (((x)>' ')&&!isalnum(x)) 
....................  
.................... #endif 
....................  
....................  
....................  
....................  
....................  
.................... ////////////////////////////////////////////// 
.................... //// Uncomment the following define to    //// 
.................... //// allow some functions to use a        //// 
.................... //// quicker algorithm, but use more ROM  //// 
.................... ////                                      //// 
.................... //// #define FASTER_BUT_MORE_ROM          //// 
.................... ////////////////////////////////////////////// 
....................  
....................  
....................  
.................... /*Copying functions*/ 
.................... /* standard template: 
....................    void *memmove(void *s1, void *s2, size_t n). 
....................    Copies max of n characters safely (not following ending '\0') 
....................    from s2 in s1; if s2 has less than n characters, appends 0 */ 
....................  
.................... char *memmove(void *s1,char *s2,size_t n) 
.................... { 
....................    char *sc1; 
....................    char *sc2; 
....................    sc1=s1; 
....................    sc2=s2; 
....................    if(sc2<sc1 && sc1 <sc2 +n) 
....................       for(sc1+=n,sc2+=n;0<n;--n) 
....................          *--sc1=*--sc2; 
....................    else 
....................       for(;0<n;--n) 
....................          *sc1++=*sc2++; 
....................   return s1; 
....................   } 
....................  
.................... /* Standard template: char *strcpy(char *s1, const char *s2) 
....................    copies the string s2 including the null character to s1. 
....................    This is a compiler built in to handle the different address 
....................    spaces */ 
....................  
.................... #define strcopy strcpy 
....................  
.................... /* standard template: 
....................    char *strncpy(char *s1, const char *s2, size_t n). 
....................    Copies max of n characters (not following ending '\0') 
....................    from s2 in s1; if s2 has less than n characters, appends 0 */ 
....................  
.................... char *strncpy(char *s1, char *s2, size_t n) 
.................... { 
....................   char *s; 
....................  
....................   for (s = s1; n > 0 && *s2 != '\0'; n--) 
....................      *s++ = *s2++; 
....................   for (; n > 0; n--) 
....................      *s++ = '\0'; 
....................  
....................   return(s1); 
.................... } 
.................... /***********************************************************/ 
....................  
.................... /*concatenation functions*/ 
.................... /* standard template: char *strcat(char *s1, const char *s2) 
.................... appends s2 to s1*/ 
....................  
.................... char *strcat(char *s1, char *s2) 
.................... { 
....................    char *s; 
....................  
....................    for (s = s1; *s != '\0'; ++s); 
....................    while(*s2 != '\0') 
....................    { 
....................       *s = *s2; 
....................       ++s; 
....................       ++s2; 
....................    } 
....................  
....................    *s = '\0'; 
....................    return(s1); 
.................... } 
.................... /* standard template: char *strncat(char *s1, char *s2,size_t n) 
.................... appends not more than n characters from s2 to s1*/ 
....................  
.................... char *strncat(char *s1, char *s2, size_t n) 
.................... { 
....................    char *s; 
....................  
....................    for (s = s1; *s != '\0'; ++s); 
....................    while(*s2 != '\0' && 0<n) 
....................    { 
....................       *s = *s2; 
....................       ++s; 
....................       ++s2; 
....................       --n; 
....................    } 
....................  
....................    *s = '\0'; 
....................    return(s1); 
.................... } 
....................  
.................... /***********************************************************/ 
....................  
....................  
.................... /*comparison functions*/ 
.................... /* standard template: signed int memcmp(void *s1, void *s2). 
....................    Compares s1 & s2; returns -1 if s1<s2, 0 if s1=s2, 1 if s1>s2 */ 
....................  
.................... signed int8 memcmp(void * s1,char *s2,size_t n) 
.................... { 
.................... char *su1, *su2; 
.................... for(su1=s1, su2=s2; 0<n; ++su1, ++su2, --n) 
.................... { 
....................    if(*su1!=*su2) 
....................       return ((*su1<*su2)?-1:+1); 
.................... } 
.................... return 0; 
.................... } 
....................  
.................... /* standard template: int strcmp(const char *s1, const char *s2). 
....................    Compares s1 & s2; returns -1 if s1<s2, 0 if s1=s2, 1 if s1>s2 */ 
....................  
.................... signed int8 strcmp(char *s1, char *s2) 
.................... { 
....................    for (; *s1 == *s2; s1++, s2++) 
....................       if (*s1 == '\0') 
....................          return(0); 
....................    return((*s1 < *s2) ? -1: 1); 
.................... } 
.................... /* standard template: int strcoll(const char *s1, const char *s2). 
....................    Compares s1 & s2; returns -1 if s1<s2, 0 if s1=s2, 1 if s1>s2 */ 
....................  
.................... signed int8 strcoll(char *s1, char *s2) 
.................... { 
....................    for (; *s1 == *s2; s1++, s2++) 
....................       if (*s1 == '\0') 
....................          return(0); 
....................    return((*s1 < *s2) ? -1: 1); 
.................... } 
....................  
.................... /* standard template: 
....................    int strncmp(const char *s1, const char *s2, size_t n). 
....................    Compares max of n characters (not following 0) from s1 to s2; 
....................    returns same as strcmp */ 
....................  
.................... signed int8 strncmp(char *s1, char *s2, size_t n) 
.................... { 
....................    for (; n > 0; s1++, s2++, n--) 
....................       if (*s1 != *s2) 
....................          return((*s1 <*s2) ? -1: 1); 
....................       else if (*s1 == '\0') 
....................          return(0); 
....................    return(0); 
.................... } 
.................... /* standard template: 
....................    int strxfrm(const char *s1, const char *s2, size_t n). 
....................    transforms maximum of n characters from s2 and places them into s1*/ 
.................... size_t strxfrm(char *s1, char *s2, size_t n) 
.................... { 
....................   char *s; 
....................   unsigned int8 n1; 
....................   n1=n; 
....................   for (s = s1; n > 0 && *s2 != '\0'; n--) 
....................      *s++ = *s2++; 
....................   for (; n > 0; n--) 
....................      *s++ = '\0'; 
....................  
....................   return(n1); 
.................... } 
....................  
....................  
....................  
....................  
....................  
.................... /***********************************************************/ 
.................... /*Search functions*/ 
.................... /* standard template: void *memchr(const char *s, int c). 
....................    Finds first occurrence of c in n characters of s */ 
....................  
.................... char *memchr(void *s,unsigned int8 c,size_t n) 
.................... { 
....................    char uc; 
....................    char *su; 
....................    uc=c; 
....................    for(su=s;0<n;++su,--n) 
....................       if(*su==uc) 
....................       return su; 
....................    return NULL; 
.................... } 
....................  
.................... /* standard template: char *strchr(const char *s, int c). 
....................    Finds first occurrence of c in s */ 
....................  
.................... char *strchr(char *s, unsigned int8 c) 
.................... { 
....................    for (; *s != c; s++) 
....................       if (*s == '\0') 
....................          return(0); 
....................    return(s); 
.................... } 
.................... /* standard template: 
....................    size_t strcspn(const char *s1, const char *s2). 
....................    Computes length of max initial segment of s1 that 
....................    consists entirely of characters NOT from s2*/ 
....................  
.................... unsigned int8  strcspn(char *s1, char *s2) 
.................... { 
....................    char *sc1, *sc2; 
....................  
....................    for (sc1 = s1; *sc1 != 0; sc1++) 
....................       for (sc2 = s2; *sc2 != 0; sc2++) 
....................          if (*sc1 == *sc2) 
....................             return(sc1 - s1); 
....................    return(sc1 - s1); 
.................... } 
.................... /* standard template: 
....................    char *strpbrk(const char *s1, const char *s2). 
....................    Locates first occurence of any character from s2 in s1; 
....................    returns s1 if s2 is empty string */ 
....................  
.................... char *strpbrk(char *s1, char *s2) 
.................... { 
....................    char *sc1, *sc2; 
....................  
....................    for (sc1 = s1; *sc1 != 0; sc1++) 
....................       for (sc2 = s2; *sc2 != 0; sc2++) 
....................          if (*sc1 == *sc2) 
....................             return(sc1); 
....................    return(0); 
.................... } 
....................  
....................  
.................... /* standard template: char *strrchr(const char *s, int c). 
....................    Finds last occurrence of c in s */ 
....................  
.................... char *strrchr(char *s, unsigned int8 c) 
.................... { 
....................    char *p; 
....................  
....................    for (p = 0; ; s++) 
....................    { 
....................       if (*s == c) 
....................          p = s; 
....................       if (*s == '\0') 
....................          return(p); 
....................    } 
.................... } 
.................... /* computes length of max initial segment of s1 consisting 
....................    entirely of characters from s2 */ 
....................  
.................... unsigned int8  strspn(char *s1, char *s2) 
.................... { 
....................    char *sc1, *sc2; 
....................  
....................    for (sc1 = s1; *sc1 != 0; sc1++) 
....................       for (sc2 = s2; ; sc2++) 
....................     if (*sc2 == '\0') 
....................        return(sc1 - s1); 
....................          else if (*sc1 == *sc2) 
....................             break; 
....................    return(sc1 - s1); 
.................... } 
.................... /* standard template: 
....................    char *strstr(const char *s1, const char *s2); 
....................    Locates first occurence of character sequence s2 in s1; 
....................    returns 0 if s2 is empty string 
....................  
....................    Uncomment #define FASTER_BUT_MORE_ROM at the top of the 
....................    file to use the faster algorithm */ 
.................... char *strstr(char *s1, char *s2) 
.................... { 
....................    char *s, *t; 
....................  
....................    #ifdef FASTER_BUT_MORE_ROM 
....................    if (*s2 == '\0') 
....................          return(s1); 
....................    #endif 
....................  
....................    while (*s1) 
....................    { 
....................       for(s = s1, t = s2; *t && (*s == *t); ++s, ++t); 
....................  
....................       if (*t == '\0') 
....................          return s1; 
....................       ++s1; 
....................       #ifdef FASTER_BUT_MORE_ROM 
....................          while(*s1 != '\0' && *s1 != *s2) 
....................             ++s1; 
....................       #endif 
....................    } 
....................    return 0; 
.................... } 
....................  
.................... /* standard template: char *strtok(char *s1, const char *s2). 
....................  
....................    Finds next token in s1 delimited by a character from separator 
....................    string s2 (which can be different from call to call).  First call 
....................    starts at beginning of s1 searching for first character NOT 
....................    contained in s2; returns 0 if none is found. 
....................    If one is found, it is the start of first token (return value). 
....................    Function then searches from there for a character contained in s2. 
....................    If none is found, current token extends to end of s1, and subsequent 
....................    searches for a token will return 0.  If one is found, it is 
....................    overwritten by '\0', which terminates current token.  Function saves 
....................    pointer to following character from which next search will start. 
....................    Each subsequent call, with 0 as first argument, starts searching 
....................    from saved pointer */ 
....................  
.................... char *strtok(char *s1, char *s2) 
.................... { 
....................    char *beg, *end; 
....................    static char *save; 
*
0357:  BCF    03.5
0358:  CLRF   20
0359:  CLRF   21
....................  
....................    beg = (s1)? s1: save; 
....................    beg += strspn(beg, s2); 
....................    if (*beg == '\0') 
....................    { 
....................       *save = ' '; 
....................       return(0); 
....................    } 
....................    end = strpbrk(beg, s2); 
....................    if (*end != '\0') 
....................    { 
....................       *end = '\0'; 
....................       end++; 
....................    } 
....................    save = end; 
....................    return(beg); 
.................... } 
....................  
.................... /*****************************************************************/ 
.................... /*Miscellaneous functions*/ 
.................... /* standard template 
.................... maps error number in errnum to an error message string 
.................... Returns: Pointer to string 
.................... */ 
.................... #ifdef _ERRNO 
.................... char * strerror(unsigned int8 errnum) 
.................... { 
.................... static char s[13]; 
.................... switch( errnum) 
.................... { 
.................... case 0: 
....................    strcpy(s,"no errors"); 
....................    return s; 
.................... case EDOM : 
....................    strcpy(s,"domain error"); 
....................    return s; 
.................... case ERANGE: 
....................    strcpy(s,"range error"); 
....................    return s; 
.................... } 
.................... } 
.................... #ENDIF 
.................... /* standard template: size_t strlen(const char *s). 
....................    Computes length of s1 (preceding terminating 0) */ 
....................  
.................... unsigned int8 strlen(char *s) 
.................... { 
....................    char *sc; 
....................  
....................    for (sc = s; *sc != 0; sc++); 
....................    return(sc - s); 
.................... } 
....................  
.................... /* standard template: size_t stricmp(const char *s1, const char *s2). 
....................    Compares s1 to s2 ignoring case (upper vs. lower) */ 
....................  
.................... signed int8 stricmp(char *s1, char *s2) 
.................... { 
....................  for(; *s1==*s2||(isalpha(*s1)&&isalpha(*s2)&&(*s1==*s2+32||*s2==*s1+32)); 
....................     s1++, s2++) 
....................     if (*s1 == '\0') 
....................        return(0); 
....................  return((*s1 < *s2) ? -1: 1); 
.................... } 
....................  
....................  
.................... /* standard template: char *strlwr(char *s). 
....................    Replaces uppercase letters by lowercase; 
....................    returns pointer to new string s */ 
....................  
.................... char *strlwr(char *s) 
.................... { 
....................    char *p; 
....................  
....................    for (p = s; *p != '\0'; p++) 
....................       if (*p >= 'A' && *p <='Z') 
....................          *p += 'a' - 'A'; 
....................    return(s); 
.................... } 
....................  
.................... /* standard template: char *strupr(char *s). 
....................    Replaces lowercase letters by upercase; 
....................    returns pointer to new string s */ 
....................  
.................... char *strupr(char *s) 
.................... { 
....................    char *p; 
....................  
....................    for (p = s; *p != '\0'; p++) 
....................       if (*p >= 'a' && *p <='z') 
....................          *p -= 'a' - 'A'; 
....................    return(s); 
.................... } 
....................  
....................  
.................... /************************************************************/ 
....................  
....................  
.................... #endif 
....................  
.................... #ifndef getc 
.................... #define getc getch 
.................... #define getchar getch 
.................... #define puts(s) {printf(s); putchar(13); putchar(10);} 
.................... #define putc putchar 
.................... #endif 
.................... /* maps error number to an error message. Writes a sequence of characters to 
.................... stderr stream thus: if s is not null then string pointed to by s follwed by 
.................... a colon (:) and a space and the appropriate error message returned by strerror 
.................... function with argument errno 
....................  
.................... Returns: no value 
.................... */ 
....................  
.................... #ifdef _ERRNO 
.................... void perror(char *s) 
.................... { 
....................   if(s) 
....................   fprintf(STDERR,"%s: ",s); 
....................   fprintf(STDERR,"%s\r\n",strerror(errno)); 
.................... } 
.................... #endif 
.................... #endif 
....................  
.................... #fuses XT, NOWDT, NOPROTECT, HS, NOPUT 
.................... //#use delay (clock=20M) 
.................... #use delay (clock=4M) 
*
0038:  MOVLW  34
0039:  MOVWF  04
003A:  BCF    03.7
003B:  MOVF   00,W
003C:  BTFSC  03.2
003D:  GOTO   04C
003E:  MOVLW  01
003F:  MOVWF  78
0040:  CLRF   77
0041:  DECFSZ 77,F
0042:  GOTO   041
0043:  DECFSZ 78,F
0044:  GOTO   040
0045:  MOVLW  4A
0046:  MOVWF  77
0047:  DECFSZ 77,F
0048:  GOTO   047
0049:  GOTO   04A
004A:  DECFSZ 00,F
004B:  GOTO   03E
004C:  RETURN
.................... #use rs232 (baud=9600, parity=N, xmit=pin_c6, rcv=pin_c7, bits=8) 
....................  
.................... float read_value = 0; 
.................... float h1 = 0; 
.................... float h2 = 0; 
.................... float rtd = 0; 
....................  
.................... void main()  
*
0334:  MOVF   03,W
0335:  ANDLW  1F
0336:  MOVWF  03
0337:  MOVLW  19
0338:  BSF    03.5
0339:  MOVWF  19
033A:  MOVLW  A6
033B:  MOVWF  18
033C:  MOVLW  90
033D:  BCF    03.5
033E:  MOVWF  18
033F:  CLRF   25
0340:  CLRF   24
0341:  CLRF   23
0342:  CLRF   22
0343:  CLRF   29
0344:  CLRF   28
0345:  CLRF   27
0346:  CLRF   26
0347:  CLRF   2D
0348:  CLRF   2C
0349:  CLRF   2B
034A:  CLRF   2A
034B:  CLRF   31
034C:  CLRF   30
034D:  CLRF   2F
034E:  CLRF   2E
034F:  BSF    03.5
0350:  BSF    1F.0
0351:  BSF    1F.1
0352:  BSF    1F.2
0353:  BCF    1F.3
0354:  MOVLW  07
0355:  MOVWF  1C
0356:  BCF    03.7
*
035A:  CLRF   32
.................... {   
....................   
....................  int counter = 0; 
....................  
....................   setup_adc_ports(AN0_AN1_AN3); 
035B:  BSF    03.5
035C:  BCF    1F.0
035D:  BCF    1F.1
035E:  BSF    1F.2
035F:  BCF    1F.3
....................   setup_adc(adc_clock_div_64); 
0360:  BSF    1F.6
0361:  BCF    03.5
0362:  BCF    1F.6
0363:  BSF    1F.7
0364:  BSF    03.5
0365:  BSF    1F.7
0366:  BCF    03.5
0367:  BSF    1F.0
....................    
....................    
....................   while (true) 
....................   {    
....................    
....................      if (counter == 0) 
0368:  MOVF   32,F
0369:  BTFSS  03.2
036A:  GOTO   3E9
....................      { 
....................      set_adc_channel(0); 
036B:  MOVLW  00
036C:  MOVWF  78
036D:  MOVF   1F,W
036E:  ANDLW  C7
036F:  IORWF  78,W
0370:  MOVWF  1F
....................       read_value = read_adc() * 5 * 100 / 1024; 
0371:  BSF    1F.2
0372:  BTFSC  1F.2
0373:  GOTO   372
0374:  MOVF   1E,W
0375:  MOVWF  7A
0376:  BSF    03.5
0377:  MOVF   1E,W
0378:  BCF    03.5
0379:  MOVWF  33
037A:  MOVF   1E,W
037B:  MOVWF  34
037C:  MOVWF  36
037D:  MOVF   33,W
037E:  MOVWF  35
037F:  CLRF   38
0380:  MOVLW  05
0381:  MOVWF  37
0382:  CALL   004
0383:  MOVF   79,W
0384:  MOVWF  34
0385:  MOVF   78,W
0386:  MOVWF  33
0387:  MOVF   79,W
0388:  MOVWF  36
0389:  MOVF   78,W
038A:  MOVWF  35
038B:  CLRF   38
038C:  MOVLW  64
038D:  MOVWF  37
038E:  CALL   004
038F:  MOVF   79,W
0390:  MOVWF  34
0391:  CLRF   7A
0392:  RRF    79,W
0393:  MOVWF  79
0394:  RRF    79,F
0395:  MOVLW  3F
0396:  ANDWF  79,F
0397:  MOVF   79,W
0398:  MOVWF  33
0399:  MOVF   7A,W
039A:  MOVWF  34
039B:  GOTO   019
039C:  MOVF   7A,W
039D:  MOVWF  25
039E:  MOVF   79,W
039F:  MOVWF  24
03A0:  MOVF   78,W
03A1:  MOVWF  23
03A2:  MOVF   77,W
03A3:  MOVWF  22
....................       h1 = read_value; 
03A4:  MOVF   25,W
03A5:  MOVWF  29
03A6:  MOVF   24,W
03A7:  MOVWF  28
03A8:  MOVF   23,W
03A9:  MOVWF  27
03AA:  MOVF   22,W
03AB:  MOVWF  26
....................       delay_ms(500);  
03AC:  MOVLW  02
03AD:  MOVWF  33
03AE:  MOVLW  FA
03AF:  MOVWF  34
03B0:  CALL   038
03B1:  DECFSZ 33,F
03B2:  GOTO   3AE
....................       printf("%.2f\r\n",read_value +1000); 
03B3:  BCF    03.1
03B4:  MOVF   25,W
03B5:  MOVWF  36
03B6:  MOVF   24,W
03B7:  MOVWF  35
03B8:  MOVF   23,W
03B9:  MOVWF  34
03BA:  MOVF   22,W
03BB:  MOVWF  33
03BC:  CLRF   3A
03BD:  CLRF   39
03BE:  MOVLW  7A
03BF:  MOVWF  38
03C0:  MOVLW  88
03C1:  MOVWF  37
03C2:  CALL   04D
03C3:  MOVF   7A,W
03C4:  MOVWF  36
03C5:  MOVF   79,W
03C6:  MOVWF  35
03C7:  MOVF   78,W
03C8:  MOVWF  34
03C9:  MOVF   77,W
03CA:  MOVWF  33
03CB:  MOVLW  89
03CC:  MOVWF  04
03CD:  MOVF   7A,W
03CE:  MOVWF  3A
03CF:  MOVF   79,W
03D0:  MOVWF  39
03D1:  MOVF   78,W
03D2:  MOVWF  38
03D3:  MOVF   77,W
03D4:  MOVWF  37
03D5:  MOVLW  02
03D6:  MOVWF  3B
03D7:  CALL   1DD
03D8:  MOVLW  0D
03D9:  BTFSS  0C.4
03DA:  GOTO   3D9
03DB:  MOVWF  19
03DC:  MOVLW  0A
03DD:  BTFSS  0C.4
03DE:  GOTO   3DD
03DF:  MOVWF  19
....................       delay_ms(1000);  
03E0:  MOVLW  04
03E1:  MOVWF  33
03E2:  MOVLW  FA
03E3:  MOVWF  34
03E4:  CALL   038
03E5:  DECFSZ 33,F
03E6:  GOTO   3E2
....................       counter = 1; 
03E7:  MOVLW  01
03E8:  MOVWF  32
....................      } 
....................       
....................    
....................     if (counter == 1) 
03E9:  DECFSZ 32,W
03EA:  GOTO   438
....................      { 
....................      set_adc_channel(1); 
03EB:  MOVLW  08
03EC:  MOVWF  78
03ED:  MOVF   1F,W
03EE:  ANDLW  C7
03EF:  IORWF  78,W
03F0:  MOVWF  1F
....................       read_value = read_adc() * (1/1000) * 100 /3; 
03F1:  BSF    1F.2
03F2:  BTFSC  1F.2
03F3:  GOTO   3F2
03F4:  BSF    03.5
03F5:  MOVF   1E,W
03F6:  BCF    03.5
03F7:  MOVWF  33
03F8:  CLRF   25
03F9:  CLRF   24
03FA:  CLRF   23
03FB:  CLRF   22
....................     delay_ms(500);  
03FC:  MOVLW  02
03FD:  MOVWF  33
03FE:  MOVLW  FA
03FF:  MOVWF  34
0400:  CALL   038
0401:  DECFSZ 33,F
0402:  GOTO   3FE
....................     printf("%.2f\r\n",read_value + 1000); 
0403:  BCF    03.1
0404:  MOVF   25,W
0405:  MOVWF  36
0406:  MOVF   24,W
0407:  MOVWF  35
0408:  MOVF   23,W
0409:  MOVWF  34
040A:  MOVF   22,W
040B:  MOVWF  33
040C:  CLRF   3A
040D:  CLRF   39
040E:  MOVLW  7A
040F:  MOVWF  38
0410:  MOVLW  88
0411:  MOVWF  37
0412:  CALL   04D
0413:  MOVF   7A,W
0414:  MOVWF  36
0415:  MOVF   79,W
0416:  MOVWF  35
0417:  MOVF   78,W
0418:  MOVWF  34
0419:  MOVF   77,W
041A:  MOVWF  33
041B:  MOVLW  89
041C:  MOVWF  04
041D:  MOVF   7A,W
041E:  MOVWF  3A
041F:  MOVF   79,W
0420:  MOVWF  39
0421:  MOVF   78,W
0422:  MOVWF  38
0423:  MOVF   77,W
0424:  MOVWF  37
0425:  MOVLW  02
0426:  MOVWF  3B
0427:  CALL   1DD
0428:  MOVLW  0D
0429:  BTFSS  0C.4
042A:  GOTO   429
042B:  MOVWF  19
042C:  MOVLW  0A
042D:  BTFSS  0C.4
042E:  GOTO   42D
042F:  MOVWF  19
....................     delay_ms(1000);  
0430:  MOVLW  04
0431:  MOVWF  33
0432:  MOVLW  FA
0433:  MOVWF  34
0434:  CALL   038
0435:  DECFSZ 33,F
0436:  GOTO   432
....................     counter = 0; 
0437:  CLRF   32
....................      } 
0438:  GOTO   368
....................           
....................   } 
....................  
.................... } 
....................  
0439:  SLEEP

Configuration Fuses:
   Word  1: 3F7A   HS NOWDT NOPUT BROWNOUT NOLVP NOCPD NOWRT NODEBUG NOPROTECT
